{
  "_meta": {
    "sources": [
      "loopback/common/models",
      "loopback/server/models",
      "../common/models",
      "./models"
    ],
    "mixins": [
      "loopback/common/mixins",
      "loopback/server/mixins",
      "../common/mixins",
      "./mixins",
      "../node_modules/@mean-expert/loopback-stats-mixin/dist",
      "../node_modules/@mean-expert/loopback-component-realtime/dist/mixins",
      "../node_modules/loopback-ds-timestamp-mixin"
    ]
  },
  "User": {
    "dataSource": "db"
  },
  "AccessToken": {
    "dataSource": "db",
    "public": false
  },
  "ACL": {
    "dataSource": "db",
    "public": false
  },
  "RoleMapping": {
    "dataSource": "db",
    "public": false
  },
  "Role": {
    "dataSource": "db",
    "public": false
  },
  "Account": {
    "dataSource": "db",
    "public": true
  },
  "Friend": {
    "dataSource": "db",
    "public": true
  },
  "ExternalFriend": {
    "dataSource": "db",
    "public": true
  },
  "Establishment": {
    "dataSource": "db",
    "public": true
  },
  "Promotion": {
    "dataSource": "db",
    "public": true
  },
  "EstablishmentPhoto": {
    "dataSource": "db",
    "public": true
  },
  "Event": {
    "dataSource": "db",
    "public": true
  },
  "Visit": {
    "dataSource": "db",
    "public": true
  },
  "ActivityCategory": {
    "dataSource": "db",
    "public": true
  },
  "Activity": {
    "dataSource": "db",
    "public": true
  },
  "LocationActivity": {
    "dataSource": "db",
    "public": true
  },
  "LocationFix": {
    "dataSource": "db",
    "public": true
  },
  "Location": {
    "dataSource": "db",
    "public": true
  },
  "MusicList": {
    "dataSource": "db",
    "public": true
  },
  "Share": {
    "dataSource": "db",
    "public": true
  },
  "FavoriteList": {
    "dataSource": "db",
    "public": true
  },
  "Favorite": {
    "dataSource": "db",
    "public": true
  },
  "FavoriteListFollower": {
    "dataSource": "db",
    "public": true
  },
  "ChatChannel": {
    "dataSource": "db",
    "public": true
  },
  "Message": {
    "dataSource": "db",
    "public": true
  },
  "Area": {
    "dataSource": "db",
    "public": true
  },
  "Storage": {
    "dataSource": "storage",
    "public": true
  },
  "SocialCredential": {
    "dataSource": "db",
    "public": true
  },
  "Twilio": {
    "dataSource": "twilio",
    "public": true
  },
  "Device": {
    "dataSource": "db",
    "public": true
  },
  "Notification": {
    "dataSource": "db",
    "public": true
  },
  "Like": {
    "dataSource": "db",
    "public": true
  },
  "Comment": {
    "dataSource": "db",
    "public": true
  },
  "BizAccount": {
    "dataSource": "db",
    "public": true
  },
  "Invitee": {
    "dataSource": "db",
    "public": true
  },
  "ParentOrg": {
    "dataSource": "db",
    "public": true
  },
  "Search": {
    "dataSource": "db",
    "public": true
  }
}
