{
  "name": "Comment",
  "plural": "comments",
  "base": "PersistedModel",
  "idInjection": true,
  "options": {
    "validateUpsert": true
  },
  "mixins": {
    "TimeStamp": true,
    "Stats": [
      {
        "method": "stats",
        "endpoint": "/stats",
        "description": "Statistical information for Comments.",
        "type": "model",
        "count": {
          "on": "createdAt",
          "by": "index"
        }
      }
    ]
  },
  "properties": {
    "accountId": {
      "type": "any",
      "required": false
    },
    "visitId": {
      "type": "any",
      "required": true
    },
    "comment": {
      "type":"string",
      "required": false
    }
  },
  "validations": [],
  "relations": {
    "visit": {
      "type": "belongsTo",
      "model": "Visit",
      "foreignKey": "visitId"
    },
    "account": {
      "type": "belongsTo",
      "model": "Account",
      "foreignKey": "accountId"
    }
  },
  "acls": [],
  "methods": {}
}
