{
  "name": "Promotion",
  "plural": "promotions",
  "base": "PersistedModel",
  "idInjection": true,
  "options": {
    "validateUpsert": true
  },
  "mixins": {
    "TimeStamp": true,
    "Stats": [
      {
        "method": "stats",
        "endpoint": "/stats",
        "description": "Statistical information for Promotion registers.",
        "type": "model",
        "count": {
          "on": "createdAt",
          "by": "index"
        }
      }
    ]
  },
  "properties": {
    "attachments": {
      "type": [
        "object"
      ]
    },
    "name": {
      "type": "string",
      "required": true
    },
    "description": {
      "type": "string",
      "required": true
    },
    "startsAt": {
      "type": "date"
    },
    "endsAt": {
      "type": "date"
    },
    "amount": {
      "type": "number",
      "required": true
    },
    "areaName": {
      "type" : "string",
      "required" : "falase"
    },
    "promoRadius": {
      "type" : "number",
      "required" : "false"
    },
    "ageRange": {
      "type": "number"
    },
    "deletedAt": {
      "type": "date"
    },
    "targeted": {
      "type" : "boolean",
      "default" : "false"
    },
    "establishmentId": {
      "type": "any",
      "required": true
    },
    "clicks": {
      "type": "number",
      "default": 0
    },
    "promotionVists": {
      "type": "number",
      "default": 0
    },
    "active": {
      "type": "boolean",
      "default": false
    }
  },
  "validations": [],
  "relations": {
    "establishment": {
      "type": "belongsTo",
      "model": "Establishment",
      "foreignKey": ""
    }
  },
  "acls": [],
  "methods": {}
}
