{
  "project_info": {
    "project_number": "836822326318",
    "firebase_url": "https://heatcity-88c9c.firebaseio.com",
    "project_id": "heatcity-88c9c",
    "storage_bucket": "heatcity-88c9c.appspot.com"
  },
  "client": [
    {
      "client_info": {
        "mobilesdk_app_id": "1:836822326318:android:ff3d16f72548c5b1",
        "android_client_info": {
          "package_name": "city.heat.RedDragon"
        }
      },
      "oauth_client": [
        {
          "client_id": "836822326318-0vv7a1ot40471d7afsnbh13cgag34lru.apps.googleusercontent.com",
          "client_type": 3
        }
      ],
      "api_key": [
        {
          "current_key": "AIzaSyAnmllgczSvPiKBoQs0GeaPpVEr3Nc-AXw"
        }
      ],
      "services": {
        "analytics_service": {
          "status": 1
        },
        "appinvite_service": {
          "status": 1,
          "other_platform_oauth_client": []
        },
        "ads_service": {
          "status": 2
        }
      }
    }
  ],
  "configuration_version": "1"
}